%YAML 1.1
%TAG !u! tag:unity3d.com,2011:
--- !u!1 &1872758949978232
GameObject:
  m_ObjectHideFlags: 0
  m_CorrespondingSourceObject: {fileID: 0}
  m_PrefabInstance: {fileID: 0}
  m_PrefabAsset: {fileID: 0}
  serializedVersion: 6
  m_Component:
  - component: {fileID: 4005936132236508}
  - component: {fileID: 114029906517001450}
  - component: {fileID: 54507887336885976}
  - component: {fileID: 135253254675670048}
  m_Layer: 8
  m_Name: MysticDarkMissilePurpleOBJ
  m_TagString: Untagged
  m_Icon: {fileID: 0}
  m_NavMeshLayer: 0
  m_StaticEditorFlags: 0
  m_IsActive: 1
--- !u!4 &4005936132236508
Transform:
  m_ObjectHideFlags: 0
  m_CorrespondingSourceObject: {fileID: 0}
  m_PrefabInstance: {fileID: 0}
  m_PrefabAsset: {fileID: 0}
  m_GameObject: {fileID: 1872758949978232}
  m_LocalRotation: {x: 0, y: 0, z: 0, w: 1}
  m_LocalPosition: {x: 3.565597, y: 5.5815277, z: 5.7691727}
  m_LocalScale: {x: 1, y: 1, z: 1}
  m_Children: []
  m_Father: {fileID: 0}
  m_RootOrder: 0
  m_LocalEulerAnglesHint: {x: 0, y: 0, z: 0}
--- !u!114 &114029906517001450
MonoBehaviour:
  m_ObjectHideFlags: 0
  m_CorrespondingSourceObject: {fileID: 0}
  m_PrefabInstance: {fileID: 0}
  m_PrefabAsset: {fileID: 0}
  m_GameObject: {fileID: 1872758949978232}
  m_Enabled: 1
  m_EditorHideFlags: 0
  m_Script: {fileID: 11500000, guid: a280b14cb9c7cb1418e880425129b19c, type: 3}
  m_Name: 
  m_EditorClassIdentifier: 
  impactParticle: {fileID: 1631640961654726, guid: 40f31f47d9ebe734b948bb7bde7b37bb,
    type: 3}
  projectileParticle: {fileID: 1898842221636428, guid: 443bc89c55c843947a3f6e99328db997,
    type: 3}
  muzzleParticle: {fileID: 1515125160394902, guid: 379ddf080731ba54191e247a8b3bf2ae,
    type: 3}
  trailParticles:
  - {fileID: 1900794807810714, guid: 443bc89c55c843947a3f6e99328db997, type: 3}
  - {fileID: 1710846909333514, guid: 443bc89c55c843947a3f6e99328db997, type: 3}
  impactNormal: {x: 0, y: 0, z: 0}
--- !u!54 &54507887336885976
Rigidbody:
  m_ObjectHideFlags: 0
  m_CorrespondingSourceObject: {fileID: 0}
  m_PrefabInstance: {fileID: 0}
  m_PrefabAsset: {fileID: 0}
  m_GameObject: {fileID: 1872758949978232}
  serializedVersion: 2
  m_Mass: 0.5
  m_Drag: 0
  m_AngularDrag: 0.05
  m_UseGravity: 0
  m_IsKinematic: 0
  m_Interpolate: 1
  m_Constraints: 0
  m_CollisionDetection: 0
--- !u!135 &135253254675670048
SphereCollider:
  m_ObjectHideFlags: 0
  m_CorrespondingSourceObject: {fileID: 0}
  m_PrefabInstance: {fileID: 0}
  m_PrefabAsset: {fileID: 0}
  m_GameObject: {fileID: 1872758949978232}
  m_Material: {fileID: 0}
  m_IsTrigger: 0
  m_Enabled: 1
  serializedVersion: 2
  m_Radius: 0.13
  m_Center: {x: 0, y: 0, z: 0}
