%YAML 1.1
%TAG !u! tag:unity3d.com,2011:
--- !u!78 &1
TagManager:
  serializedVersion: 2
  tags:
  - RAYGUN
  - ELECTROSPEAR
  - PLASMA
  - Enemy
  layers:
  - Default
  - TransparentFX
  - Ignore Raycast
  - 
  - Water
  - UI
  - 
  - 
  - Ground Level
  - NavLevel
  - 
  - 
  - Player
  - PlayerKillZone
  - PlayerAmmo
  - PlayerSheilds
  - PlayerAnims
  - PlayerFX
  - Enemy
  - EnemyKillZone
  - EnemyAmmo
  - EnemyPlayerContact
  - 
  - 
  - PowerUp
  - Logo
  - LogoBack
  - 
  - Spawner
  - SpawnerActivator
  - 
  - 
  m_SortingLayers:
  - name: Default
    uniqueID: 0
    locked: 0
  - name: Player
    uniqueID: 3001540759
    locked: 0
  - name: PlayerWeapon
    uniqueID: 2813682245
    locked: 0
  - name: Enemy
    uniqueID: 3272720825
    locked: 0
